<svg xmlns="http://www.w3.org/2000/svg" xmlns:xlink="http://www.w3.org/1999/xlink" width="21" height="10" viewBox="0 0 21 10">
  <image id="arrow_down_triangle_kopia_6" data-name="arrow down triangle kopia 6" width="21" height="10" xlink:href="data:img/png;base64,iVBORw0KGgoAAAANSUhEUgAAABUAAAAKCAYAAABblxXYAAAAjElEQVQoka2MMQqDQBRE/4WsU2qXMgfwAtb29p4wt0ggjYWwPBn8gslP1iw48Fh2d+YZMHJuRknFcJJWHtukog+VsvSbay8VHZAKZcl39ksq2gJx8r4dScUNmIPiPbP3wj487LgCU1Ctmfz/2y4rFQ3w+hDqXud2R1JxAZ4ufPg9u/lHKirg7me+C7YA5sHdoHcdkwUAAAAASUVORK5CYII="/>
</svg>
